{
  "compilerOptions": {
    "target": "es2017",
    "allowSyntheticDefaultImports": false,
    "baseUrl": "./",
    "paths": {
      "UTILS/*": ["src/utils/*"],
      "ASSETS/*": ["src/assets/*"],
      "COMPONENTS/*": ["src/components/*"],
      "CONTAINERS/*": ["src/containers/*"],
      "CONSTANTS/*": ["src/constants/*"],
      "SERVICES/*": ["src/services/*"],
    }
  },
  "exclude": ["node_modules", "dist"],
  "include": ["src"]
}